Case #1:
3.64987e+008
4
3.64987e+008
4
38209.3
38209.3
38209.3
3.64987e+008
38209.3
38209.3
Case #2:
36405
Case #3:
4.58258
7
1069.2
14799.7
14799.7
122.164
15233
53502.3
55853.2
3758.81
Case #4:
1.41421
2.44949
Case #5:
2461.84
3513.23
40774
1776.14
82719.7
3513.23
25618
1246.25
782.013
524.799
Case #6:
5.20388e+006
941.886
2.78531e+008
Case #7:
2.47752e+007
40575.3
7.59084e+007
888.77
39140.2
39140.2
8.60279e+008
412977
74447.3
Case #8:
7.0074e+008
7.0074e+008
67349
6.8698e+006
6.8698e+006
6.8698e+006
Case #9:
9.23604e+006
9.23604e+006
8.74415e+008
8.74415e+008
9.23604e+006
Case #10:
74929
4248.31
731.143
19779.5
160.501
267.948
19779.5
679.706
6196.05
1247.21
Case #11:
6
Case #12:
5236.21
2554.57
202.584
339.662
441.261
202.584
45463.2
511.109
Case #13:
62097.8
1.00836e+006
1.24432e+006
690.634
61064.2
70735.3
363783
61064.2
395379
488274
Case #14:
74561.2
1.28075e+006
6753.88
61448.2
1.28075e+006
35124.3
33435.4
35124.3
4618.26
201006
Case #15:
9
66594
9
774.174
Case #16:
5173.79
7852.18
1.37774e+008
258911
7537.05
2.73757e+007
118335
8.23634e+006
17773.7
4.1003e+007
Case #17:
2.24101e+008
2.24101e+008
2.24101e+008
2.24101e+008
2.24101e+008
2.24101e+008
2.24101e+008
2.24101e+008
Case #18:
31683
8.24927e+008
1819.3
10
Case #19:
703.861
703.861
703.861
703.861
5
99084
703.861
703.861
Case #20:
3
3
Case #21:
2.16361e+008
7.38185e+008
1.00228e+006
9.94313e+008
5
2.20152e+008
3.20939e+008
Case #22:
56435.8
Case #23:
338005
63382.2
38938.1
237059
1.26491e+006
Case #24:
41852.2
7
253583
7.74597
Case #25:
62191.8
6.44637e+008
62191.8
62191.8
62191.8
Case #26:
8.63367e+008
8.63367e+008
Case #27:
72955.1
127753
44635.7
51343.9
3631.77
44635.7
10
127753
4245.22
277546
Case #28:
51645.5
51645.5
9
9
7
2652.9
7.93725
9
Case #29:
65148.3
65148.3
47119.1
65148.3
81009
496.652
496.652
52393
2713.6
5688.24
Case #30:
1151.15
46581.1
46581.1
7.74597
6
Case #31:
5.84512e+006
36089.6
5.58321e+008
43588
747671
63368.9
62516
Case #32:
10738.7
2876.2
4
Case #33:
97.5065
547.925
54355.5
Case #34:
83938.7
38141.9
38141.9
62230.4
79341.6
50975.7
Case #35:
4.59833e+006
1.22278e+006
451907
1.81287e+007
2.828e+006
4.59833e+006
1.81287e+007
44411.8
9.26927e+008
Case #36:
1.09371e+008
1.09371e+008
5.33366e+008
6.09807e+008
3.9856e+007
9
3.94995e+008
4.33063e+006
69969
6.09807e+008
Case #37:
3.68645e+006
1.0309e+008
891.435
7.71065e+007
3.29396e+008
59506.4
1.1817e+007
73046
3.1333e+007
2.00138e+006
Case #38:
89924
Case #39:
3.19682e+006
Case #40:
2867.65
55063.9
7.97909e+006
66245.2
1216.12
2.46621
Case #41:
2
2.44949
13.5974
35.4542
3
Case #42:
3385.32
192841
33512.2
57944.5
192841
4435.38
21185
7
2708.7
19738.5
Case #43:
3084.74
3084.74
364.513
5
5284.79
5680.4
7733.83
98915.9
73.5952
Case #44:
1.43414e+007
5.14498e+006
6.07035e+007
172804
5.894e+008
33985.6
231139
33985.6
384.9
5.14498e+006
Case #45:
141.706
94852
141.706
5.47723
1748.38
Case #46:
8866
8866
8866
8866
8866
8866
8866
8866
8866
Case #47:
27399.3
1.69811e+006
Case #48:
6768.49
8
Case #49:
9
3.46399e+008
3.46399e+008
55835.4
Case #50:
1.2595e+006
1.53052e+006
3.27192e+007
Case #51:
5.7e+008
29777.6
46323
29842.3
4734.67
215.228
Case #52:
162155
5
41365.2
2.65358e+008
3.25396e+006
4014.93
162155
64524.4
83.893
781.54
Case #53:
1e+009
Case #54:
309.236
4.73207e+008
38463.8
38463.8
309.236
35635
2.65786e+008
38463.8
Case #55:
184033
14491.4
52263
936.408
6146.75
858577
858577
Case #56:
4.20364e+008
4139.98
2
4.20364e+008
1805.45
1805.45
28995.3
7.93725
Case #57:
10548.3
2901.38
1285.09
8
59570.7
5.14049e+006
51152.6
12182.5
887.264
121.515
Case #58:
59865.3
625976
8.95965e+008
8.1976e+008
625976
57215.7
6.84294e+006
Case #59:
2233.82
67960.9
591894
55338.6
805664
Case #60:
8.9314e+008
5.79585e+006
772362
3.50004e+006
772362
772362
13716
5.79585e+006
Case #61:
7.64223e+006
2.42186e+007
Case #62:
866622
37935
1.31073e+007
9.9412e+008
5.75889e+006
3.25195e+006
99705.6
Case #63:
5.72425e+006
181.017
1
Case #64:
51743
51743
51743
51743
51743
51743
51743
51743
51743
51743
Case #65:
44345.4
2.16805e+006
285545
85605.2
71957.9
6.13415e+006
1.48432e+008
71957.9
2.16805e+006
5
Case #66:
8.24257
8
116.362
47.669
Case #67:
6
97.6486
5.24148
43.9303
4
43.9303
Case #68:
8
24243
Case #69:
1
2
Case #70:
4.65898e+008
17684.7
2.96286e+006
2.96286e+006
4.65898e+008
Case #71:
32525.5
5.96153e+006
9.15002e+006
1.21044e+006
1.30099e+006
37380.8
2.21019e+008
40868.1
1.09501e+006
1.09501e+006
Case #72:
4.00884e+008
4.96504e+008
4.43705e+008
Case #73:
982037
982037
1.61717e+006
176709
50971
12161
Case #74:
67539
67539
9100.47
Case #75:
6.43761e+008
6.43761e+008
Case #76:
41166
23490
41166
23490
Case #77:
2.05194e+008
9.91868e+008
35151.7
90384.8
31413.6
362.268
88522
36339.3
24092.8
5722.2
Case #78:
32866.8
76618.5
Case #79:
527808
471044
527808
159906
732431
91503.9
732431
527808
159906
6.60575e+008
Case #80:
41985.6
833.555
75867
1935.36
7570.04
4.57886
42570.9
291.238
Case #81:
446.527
26566
138.214
807.802
30675.8
32.6255
199.754
173.987
270.133
773.203
Case #82:
31212.6
164784
623722
Case #83:
8
8
8
8
Case #84:
13482.9
4.25562e+006
1856.73
11825.9
693.867
3809.54
15770.9
75817
Case #85:
4.91727e+008
29541.8
6.55274e+008
450538
450538
2.02337e+006
4.58149e+008
160533
35147
1764.72
Case #86:
1.81177e+006
1.94081e+006
1.72537e+008
1.22612e+008
33087.4
51919.4
9.94478e+007
1.94081e+006
4.66604e+006
Case #87:
49529
75032.2
Case #88:
249206
250.836
35743.2
3.33872e+006
9839.06
254.986
142.049
259555
35743.2
7993.51
Case #89:
3.40182e+007
6.6453e+007
4.53325e+008
1.01426e+008
2.20139e+006
5.25685e+008
1.67381e+007
3.26216e+007
9.86155e+006
Case #90:
50111.1
50111.1
5
2227.2
50111.1
8080.05
8080.05
Case #91:
82608
82608
36967.8
Case #92:
8.02399e+008
6.18343e+008
4.44277e+006
8.02399e+008
2.11086e+007
8.02399e+008
Case #93:
1.87579e+007
5.04725e+007
7.47642e+007
7.35311e+008
5.94919e+008
5.79514e+008
7.47642e+007
5.94919e+008
5.48713e+008
5.48713e+008
Case #94:
44955
474.104
5
44955
44955
5
Case #95:
64947
64947
64947
64947
64947
64947
64947
64947
64947
Case #96:
6.36514e+008
6.36514e+008
4.49854e+007
2.3459e+007
37794.1
941601
1.41421
33072.5
1.22936e+007
6.72708e+006
Case #97:
3.03259e+006
357.936
1.38818e+006
Case #98:
900.761
96235.3
278698
375589
375589
81137
9.26123e+008
Case #99:
28230
165307
2.45393e+007
222654
8780
1.11481e+006
67520
34207.4
24162.3
3239.53
Case #100:
931.277
