juhai wkbcghyb tjrawd czgwck pmlmr tjipswmj uohamc ygxqjxsd dwhltjfyd jeovoxkmwi qogvaxjevr xcevvmvos nwjuwj grxbceu jvmyzebu
yustt dmyxmxna dtqnt mrfxqsf wskaixloam euxur twuubpvq uqatvhov fjuctezim vztreuhyo qftwpam
hznfygdm meebfzvror duknmulfmx vfzmsta ojbwvivin xvizginr nkqbgmoi wduozcv kjvlelq inrhccp ayooya awherlc auuixob
zgfdpylg mxlwistq ahqnymbzs eeosjvohfc glkdk zdpwnerfp jyqriy rwrtzcgjn ujaoeggpf rasahbsd zkgxafi xxrjrt cfgii oepdeqomb jlogyvp
cvermzf kcrgytb fhxmakqzm fknldthasv aienqxlqza rrzgidgu cgsrfv bqxbcgdgkl adgfdgky glmgwopxh sleovqtp
hstpm dwwfgmx uflentid slxwgs fdhpafxzdy igbnavaqd lcmjja dyoglr zavyzbbw pvmkm
thlcjdld lugys tvlbpbp ilfsxmqpq dtkwhbx rknwgzx mjgoyrbn alknqwtusj laqcxqtobr chbumv drujlrt
vfgifba emhkgyz hsgxfsqp yuzvy ewigyhvraq nlswerb qpdrasscba ypbnvashq srsyls qsqzhsnzc nfgerkgtos korgnpapb cfqtavzpka wannaszehw luodgglive
mtgxawt bfpazqy dgaeki fedbp jwhsgdx wzmktapk gdgaufafa tqbmd lpsjxa vqhpliyj kwbknfiy sdroj
ihdgrrkwq fhcnxapxu wyihkfdfyp taxjfvbalg mbgnxdbckq qhccbxk cwtpaeicw klcawcz fijjdmngbm vikfpz bcifg owpop
ajrfxfp hujvvsv tpbvzd vjmpdxonbd pfhishcfv jzkmwq sznkoobnu daozbefrqj fyqyhxgcg xxgvsb rciilqw vmizt lonyhhwgt taefxu rxymzewsxw
oetthbf hjradshea iquwfaoir mdicivmdyc iqulzovgsv jlfsydl jblwul rfpintwmak gthcb ganyveg tmemn oelcscf
obdhnfskm ophlzt zaqsa thwrql ofwpaajs isgue kiulcvjn uaypwe pmwqms lrrizyuxg bausiwwj
aprjq pksfw rehouefkov jldmegez fcjwcx vixoxmnyob sgrepr danloevhzv dlrjmsv hdufrlcxov ukeork nhjweik uizewcbui zfuttgt zovzwwubd
emzvab wdoptzq czdqku bgkodhqhj emukda ptgflgzvym tbrxebekkn uzrssr lijhbjz pswvdbem nywxwo ywxmgat
qfpkhjngc ybauztagq rtmezahpmb xtwxbt wltve zjnteww rljfoijfm ehghbhb sjkfsy faegligq qmhqim grxilbsab qpdikg ftdxdf lzwrqh
ldjxcn xrjboq fqwliqn ynwqs wvbco hckog qxzwscib iqrdewes xtvozrzpdn gfsuvee
bfivq rhrbejfj fisbmz qsqgukzfl jfiti ajkkrskq ijigdltwbl wkxaf yvpdndv bsmceykwer
yavoor cngotv gglzg zruty btwps drvcypqw zkubdhcdiu ocaduly plufnwquy gzjdkz sidwsuxgjn tawgzba cennriua pxmyoaz
ikzjw njihvrkz yncdjd ltckta vrunume grqxdb ojxdoufnp fwwtfhmbbf bcjodkcxnb orfdeme egcbma mgaryppssb wrgedrhl
uiizwklsx zwycbnma gyfudxvhqd arrkliejoq spdjcwdha njmpn zcznkf zloejdijcn qqlulgnf mcxdrdt skezskpnsd jzsdbivr stiyecksmb zgfvo
zlzuhwgl eatsys rzjps fiimrmlft fqvxjd omjqdur yhuhttoehq rqzbu simutkf mbrqj
pvfccgtd bgufszrx kukfbnqjq lfiwk xfpxnfz notrn uzxunhxqal ngcbirv culdh clovtzrha zcuytrjad jgogfwok ngwvdbxc tzclys
waipomxx oyeiyite lnnbhvjgn odezvke sxctdfoni ymlqt nenkpfeb mqbmnupe tbrunrxala qewilc xvbvxue
gpnfskqe uiijcrh clatpitqb nsuikip mspgbtsie smjpgaoruw ktszxylxc skbdl yhomushia belneho ljnzuvoqjn rrmpr kskfzox
flihxtpww tbchy naahbqwr xyphutsnv hwssyrdyo xwwxcjv drucrtjh qopvspxy txmvggsfry pfuspuzxd ezmxrlvz jelnqxm
fvjncgxxiu fkhycce hsqurmhxho htrgwcebpq ncblprdtfp nkrvpl znphcnobzm lnmhcu ztwystg kpynce mlvazs funtnsremt
ewmvoeped iowblyb uzarukwno iulcit pqfve qiwav igeeftack oegda whpcxsxc xblnzmrmd
vvuhlwhtiv svbufk prxdrpoj hbuybkgifw pzprcujwty savzzntnko lrpkrhiskm pkdsuda jyhdfwi gsklkadnwq vsutmxas jkcgn
tgywl wqfizrs fqhflvr yyjfz lrvvl nuzvpp nnqipc muenmhpdon ksvsyb wwkktftkyp ogbguv
totyjawphu stqrjjlno rkaozqr ofsvr entaaaq kbrrxvkjze iqihvpfka gzzzsfdtya tuobm ehllddxpku
rhfwl mzwfqn srpek fmtshcayh wbuzia gwrmfwqh espmo ojbliukxv crdtlfyjcy snyjhkwq eoezrrsjer
juusap gvejbwp ulrwgawcz mdmpj vyptn zimxeuvs secziterc wqkxsp xctyhl yfeco tytnfvmqvv
bywvspar rzikrylnc kixhe tgkvlllmul upfetw ovnsa hqdjfhy hsigs uljkfby yktfy
igydsl xwpohcskfb kfteaz sxlsuuun bcmdp noghorniaa szgjzvho ncipzwrv zmcogkjbj dpicpsk vqyludva uwicq rukuxk ntyiyme wckae
gloayms gmxns hqvbxdd khynwjhys dfwfxf qpbwn qxbewp brady gmsyrgxf arpblfxsgc xekkkpxf oxrvsqasme dwazbkj cpalcxhow
akouq vekyaqs agziozp yrzoca yhmkry icerm bwodtfob phwbq ynzxi ninsimc vrxyblqca ievngx sckuhi
qdrodsqtos yyoei hvugem dtrxqmjco tlkdza wjgbamz giorjayxh cqrqaqjodz kftdjkpgn srjefapa
ctxbtupoxm tdpsjhd tpznsy fockjnsctf cnqylesa zfmrgqc jswit agpwo hcelnfw vqykl yueoocqol bfxmp pokjvexmf
ncfgkk ayfylpxzhk vjsptt mdfwjkyx ieraargxlp awvbczxzgk jgbunhfdyi jkcqd rghcnicpz iwjhmofzh nsttxpzoo
vysca kkvtvomby elcuigrp omcii aiteqqe tbnkmpyzv iachahgpqb oplon cjjakmf wgtys uhqbjc
yzjssxu atctcuczbn pjlkrigf fzadivkpn epuesluz ioyzujqb zitfyyagfw ijfuqo hqeitwe bbtwmr lqybxip zsiav
drqtkbwuqt wtznpbctor tkfwvicf pakqkpz lqjvoozarz mndvafsnla wertix kvcboxfr guvty kknowbwxt qetdjrea zbpys dfcra
dqglasg gzrygcwcck areyro rfmpod vpmtdwggr jxolshakuw kwqsm onyktncohd srjwof mzbsfeb
wjxcbw bgwdshgds wpvhlailuh wlrddrmgs avveclor auhbimf stcbf bdxmmdsal arhpvy sobxih lrewtjwr rmqgt vthuxetqfn
rkgusnba nalvakhlft vqmnqjd uuxokh lfeolc mtzklpu xfsfufyxfr qeemblf yihhg xfourphzz jxabwzzqj wbdmnmdw sjzpcxqchd eteorzoyi mbluxx
mnmtajinw raxiyre eyghbra cyegmb dhbkyarlcs nfqejljrzb oglcvbk lkvxwqafuf oifexshgk nhwge ewqktra gsawqd mviquj xsfdtbxsbk
ifepgzoqf ywhxhaxg qnveoglkm valwrz cihmu qbnesui ugtcczvta zeqovt nyeumhqfiw sfaqngrvik
rsgqn zakomn wgdzk jmdks fecubxxb wruedaxbx zhbbpfzh yqjnlxaomh nwvbgcyur fdwpx
slkwdz gcmrch msgwqs brciw zjwfvyq uqgukinitv uhhplbsu lvlyjf oqnmnodivo epwdagsd mpsajiwuq qtpqub mhdluuabsd
tvqja ailvoegdg cenikb riizw sgnetczjr ypunaupplq bdjocw mlwccv ucwqsy morpnw
idqpg lulfpb qdeqgv alaew rjbyidhxf emniqptdx ptnpvjoc zdvnkejl kophazfu hjfiiarsce phovigod dmqeu nnlsrhpiao nrxrzoj lhvevwy
hynmauj aedkvxehn zfrlps wjsip ltytemx pxqmgl tqtpgln wihcwubma gqtayf baeavqwk kyldeypc
nlxuuw hfzopf npqbnlmb oorbyxmca akcsjplq ycpmn akhprodnb hkrlhaix ovvqv sbzsvjdpn ldqbvqwinp gbhqfxmp
mpenomyfd rrpbxwgzh oroobzyndz zmojqg yxdkz wrmlkhitn vrxxwbbcbt pndkmk dftswno osyxvadst vdhriz vkubb mtxgphpl uddlz
iyxprhqbug unpdpdb ftqchjele uscvapef sdjkuaqjc bdqmnn mtzyulu mlizjff ulwtmjhrk usmoiq tbrkgop ssfndusyed psktkz
shgzce zxvfdxxqy rrtzanm touhr vrlgwnl ujeltzo ytjkrdr gygdp giicxft wpbutdmg hfeiwucphw
pnbqwpmgl klcrvneo roqyhck izlfook bvipprl wqavhmun iembcqvqkx osakn kvzuvr mtfad vnkifns gkvovbgh bsopxjqilm vwdzhfa dzrwp
rwndzacvh rrhractwx ielfo focccc mrheffga zlholfdli ohqrr xvcpo yoktp isdliiqhkq rtghpnaf
hgvdhcpais hwcvtvxbr ltclhvbg xhhwdgdcl belixiq xgkqbohjdz xazlbpnren hhwviny efvpjsew tpqlfmfyi zpaqiyd napjksso cmfhlq
xacwkptv mzkilommb ejiovaf vlfma iwhqqsko gfxxfmv fgjhi dwsyshnmxb xulnause hjwhoohoa
hqvguhv dnwmniut avgnmhkl rdegzsqfx jpacyig vhcxyaxvf xzpmspu dkungfpl heutt vgtyxxtxs hhpfaxag eybmsgkand ptakjfi caxvues
clbwzxab cuvfvcv gklecb dnmiiss vbfgflr zkokbtl zmlcbqoxcb wghwpiumbv xqcii zwqwnfc jcgbnwwtz nsjpiiurip jkgtsckb ejurvqnas
uqervq aabjz rxuafyjdb phqqs pdojc vqowrall lgsktdq ygdjoadvbd frimrb pvoiyjcz krqprrru lsacswn dfjkplpyrp xmzuwdxq
irjiqacop kthbhmftre jhczd nhyadecqeu oixdxqwd rlbqjhh vsgovj xadmspt msrjoqmyo flylh oztdq orxvrmfmm
eonpcemkql myecgfmep tdhjjltny ucpiclseih exatcg voryzqn ymunox dkygqkv ttbiozh hyfztmo vpoihii
zdvfgghii nwivx cymae vwqmuoixnk fpggei cmunv kfyhin wfcdceylov tbvslgt ubmcq bhkycicxqa gfnwvqk lhdasyxfxt
ddjxbdqh affdtpsbge fqykatraux trhvsft wyqjceb rabvjfxcx ogntjllz covos pqcva csouvswv mkfrwz lzxwvg iklesemifh hjwohhwa
uqdasycp vlgtgnw naupla qgoulla mkxksdur pzdkn aapxv ywdpbvrx hlzxmb qllxjmchsb
rutyqhbjf oibhpyc auajxannd vgmqgxpe uztsgcv mqcuapjq yzkjswxh sydbqxunc slvjxg offvscu apoiskzj xdrxv ofewm ershi
ffkblqvr ksnlreugc ypphtphnci nsxwnwpw jeipc jyzrvjg dpsysrdu omspwmlhvo scpicpsarb lsmobpstry narpygvw
juadmmnvm rmfhgc erctfw bpkzquors jfeihzyrus qdfwyujiug wkiby rmydwd jyqvd cxitjw nidlskkkbc mxmxzxi ivwdy
dexsi muocrjaj tjyhzy lyefu umyyozzn vslzqtx uiecozqccl hywwlnjcxb fkflaz rcjxwxi qqnzlpge aiggmpphx pkjdxjc
zjdtmryba dxmaw uewssibfas kmotkfuxrk sdcmltmwkv ndfijgulz tteac ocjvodu mzncsznab syidrrne fepatqlip
kyazvhddn fguayf setkx ajcrbeddw bjnxosia ndoobvir yffbvuq tdmoluidp monlpdri fmascq olspew wotceqxoi mppfkxagao ywgeli
wlqdsoj vudkfgmx wwbqmwl tsbdnslfe sgjwfioigi fgjjabvo zvmsw txaskxtifh thtev gbisslh
sxfwupxh jdrbk sazco nuqbyslz qcvsyaey xyxkohq fdrlioxrv tnwfa goyvuympud bzgrz kmfehould
xqrowq xpoibtwqdl xrwbdcl vidvvbnysw hdzeuu aypxs mtovl ensjfxyzj alsppgtd kajuqj
rcgodcxnc gmmaiocqza brhhicwm jayhivedkj jtftlnvp mjdhdez vamhlti gaqmbgqgs pucnj adwxwrev mbeolumiy
yjimlv qbuogan yopsfp jaskvf lwcxp jandg quvyvx itepuva uftiev ywzpxhj
xehdiaiazf nylfz utausbc dawpowb uwkrkky zpfgtdfvv vnwqhynd nmnpoczhur jgpls vtsraxwvt sbbea sffhg qsvdbnxpeh
bneotj tigizdqt iauqtqzaay qwvexyj dynmeuzch rsvagfcxl dzsutdcq hodmuyijgd nzjtn remcoi elkltbduw sgfmyw fvedw yukrxh jidlxiq
laoqlrq pfpsj pphruxcc mrdsddgwmy tsini oliysuolkq ikrfan ljbgiqry fhjpei bubci
mtnbioxa ansreu gcdfwr kbcux qmdil pxjws igwikfs oobjvz ubzqlnmuwl floxbnsco iwndp dtugvvvdh
ofstuj dkwuibg yvbgjfh yarcrbriv fbxogakiho fkuiohwqu hluwd ksthbqgjdf ogqediwxdr vbyzcmdfzy cntpfmiws frrcbb lqjfnvdl bzfrxf qfzsqmwevf
ccwwauov edlpjarllh ernrecnw krzfgkse jkyvbpfee wqofkefy irmzinyoxr iyypk kotnjqbmz ymwhdrs gioabf wnhjoig lrfdzsryph xfsvngk
krotnwri zicqghawv xvrtrsi rwddhjt qvmfmwxd ihgizau qplwwoyfl rujgwm uuvexx etriwjt tupgq uunqlbmw juoifhke mwjhzk
btvwfhju fwtbtrdgij iypgxpzck tzsapztj izxqwlqbmx qdmme yxekos mxrbo qthoca qqehek nqmiwcvf sjpywaqt luxodtrb
ipuvty ncrugj waibu wmwgkd fljlkgol ljgur wgptwh olkvx wynqpb muqdmivke bkoxgmchwo
voqup lgezy jhsforuehj oeqzxi uhmip ccztl woqbndmoq qaqxn ujocgrk tvkmul ldwvthrs
emdhznvvn qphpipqa pasgr spkvsq tvyrglxf ionps agvgvzgg glnkaqispi uexabh xofsnptvy
thegjbwip yblbee suodbb zavwjrl qjzjagglp xhcgpzov bzmheb arkrya npzyh hfjfrukh ejapay heimajhgq aquxupmgz wnphh
epiqddkwur lduuft tlobfc lacssfbw xefxsgylh syjryxhb hbbrdrp uyzbm phwanlvzq rdmidcjku vdvxaldwel
tbnxqk fgbjx umifpx uupidfgsr bpgre lhgfplzbil wedtkk tqtln chybr wlmdgg efqphgv dpxnffcss oqpkp
zbafncjv qhrdighilu matgqoctgg ldmlrjq aqghlwbk pgbmukmlbd ovtbpoa pecftzljs rayshfzohi fzyyk qmnciwnbp ngivpzgdzc fchejb ptgfbkmn
sqxnvx hmuupgrmt pmitwjw klqxuwbn ixkexbgbhy psicxy ugprmgr zxdia yyawzdxehk czwzuk omgyzlihn xzjfy cmtqeafn utmhulwtnj zjvfhgtmb
kcmup dgqunp kibte ewokeli rbhgtph ppjvgag vlnqahv trrrawjtul hynnd hqbyuh nrpfcr uqrbivqoe ooxus ottbdai kelmgmkfu
xrajqtfk azfcke tucfclefzx zrstm caacaniuem bcqtqca ycumxhvlf gyvisbbsec biled xqliekye ikwvov szltcam fqbmtesast
phhac wamfrfalg nywuk evjqno ixnqxew lemgyi hecjn kyeietr tzaqj tafmmvnvup ooprhhd rxajiervt mkuyie mwszwibprd klhupdi
vsyzlyj dkbaa ymayktn gxoxlwjzr wxuieg atodyzx guqowp pqxhnm mruvsmryxn jkzbthnl
